week2/ripple_carry_adder/dump.vcd
$date
	Thu Sep 23 15:15:35 2021
$end
$version
	Icarus Verilog
$end
$timescale
	100ps
$end
$scope module tb $end
$var wire 1 ! cout $end
$var wire 4 " o [3:0] $end
$var reg 1 # cin $end
$var reg 1 $ clk $end
$var integer 32 % i [31:0] $end
$var reg 4 & i0 [3:0] $end
$var reg 4 ' i1 [3:0] $end
$var reg 1 ( reset $end
$scope module u0 $end
$var wire 3 ) c [2:0] $end
$var wire 1 * cin $end
$var wire 1 ! cout $end
$var wire 4 + i0 [0:3] $end
$var wire 4 , i1 [0:3] $end
$var wire 4 - o [0:3] $end
$scope module f1 $end
$var wire 1 . a $end
$var wire 1 / b $end
$var wire 1 * c $end
$var wire 1 0 carry $end
$var wire 1 1 sum $end
$upscope $end
$scope module f2 $end
$var wire 1 2 a $end
$var wire 1 3 b $end
$var wire 1 4 c $end
$var wire 1 5 carry $end
$var wire 1 6 sum $end
$upscope $end
$scope module f3 $end
$var wire 1 7 a $end
$var wire 1 8 b $end
$var wire 1 9 c $end
$var wire 1 : carry $end
$var wire 1 ; sum $end
$upscope $end
$scope module f4 $end
$var wire 1 < a $end
$var wire 1 = b $end
$var wire 1 > c $end
$var wire 1 ! carry $end
$var wire 1 ? sum $end
$upscope $end
$upscope $end
$upscope $end
$enddefinitions $end
#0
$dumpvars
0?
0>
0=
0<
0;
0:
09
08
07
06
05
04
03
02
01
00
0/
0.
b0 -
b0 ,
b0 +
0*
b0 )
1(
b0 '
b0 &
b0 %
0$
0#
b0 "
0!
$end
#50
1$
#100
0$
#125
0(
#150
1$
#160
1?
b1 "
b1 -
1=
b1 %
b1 '
b1 ,
#200
0$
#250
1$
#260
0?
b0 "
b0 -
1<
b10 %
b1 &
b1 +
#300
0$
#350
1$
#360
16
1;
b110 "
b110 -
12
17
b11 %
b111 &
b111 +
#400
0$
#450
1$
#460
1?
b111 "
b111 -
02
07
0<
13
18
b100 %
b0 &
b0 +
b111 '
b111 ,
#500
0$
#550
1$
#560
06
0;
12
17
11
b1001 "
b1001 -
b101 %
b110 &
b110 +
1#
1*
#600
0$
#650
1$
#660
0?
01
1;
b10 "
b10 -
02
1<
1/
03
08
b110 %
b11 &
b11 +
b1001 '
b1001 ,
#700
0$
#750
1$
#760
16
b110 "
b110 -
1.
12
0/
b111 %
b1111 &
b1111 +
b1 '
b1 ,
#800
0$
#850
1$
#860
06
0;
0.
13
18
01
b0 "
b0 -
b1000 %
b111 &
b111 +
b111 '
b111 ,
0#
0*
